Text Analysis: Matching and Linking
…
1.3.1: Exercise

Show the top schools by number of reported results. Display the top 50 results (?print).

admissions_results %>%
  group_by(institution) %>%
  summarize(num_results = n()) %>%
  arrange(desc(num_results)) %>%
  print(n = 50)

## # A tibble: 3,028 x 2
##    institution                                     num_results
##    <chr>                                                 <int>
##  1 Stanford University                                    1046
##  2 Columbia University                                     873
##  3 Carnegie Mellon University                              782
##  4 Carnegie Mellon University (CMU)                        717
##  5 University Of Toronto                                   688
##  6 Cornell University                                      638
##  7 University Of Southern California (USC)                 613
##  8 University Of Washington                                542
##  9 Massachusetts Institute Of Technology (MIT)             490
## 10 Princeton University                                    478
## 11 University Of Southern California                       415
## 12 Brown University                                        398
## 13 University Of Waterloo                                  386
## 14 University Of California, Berkeley (UCB)                379
## 15 UC Berkeley                                             365
## 16 University Of Texas At Austin                           353
## 17 Stanford                                                340
## 18 University Of California, San Diego (UCSD)              335
## 19 McGill University                                       320
## 20 Georgia Institute Of Technology                         319
## 21 University Of Chicago                                   310
## 22 University Of Michigan, Ann Arbor                       294
## 23 University Of Pennsylvania                              290
## 24 Purdue University                                       279
## 25 University Of California, Los Angeles (UCLA)            268
## 26 University Of Wisconsin, Madison                        251
## 27 University Of Maryland, College Park                    247
## 28 University Of Massachusetts, Amherst                    240
## 29 University of California, Los Angeles                   236
## 30 University Of Illinois, Urbana Champaign (UIUC)         234
## 31 Duke University                                         227
## 32 University Of British Columbia (UBC)                    226
## 33 University Of Pennsylvania (UPenn)                      224
## 34 GaTech (Georgia Institute Of Technology)                220
## 35 University Of California, Berkeley                      218
## 36 University Of Oxford                                    218
## 37 UCSD (University Of California, San Diego)              217
## 38 University Of Washington, Seattle                       215
## 39 University of California, san Diego                     213
## 40 University Of Utah                                      211
## 41 Northwestern University                                 210
## 42 University Of Alberta                                   205
## 43 University of Texas, Austin (UT Austin)                 199
## 44 Georgia Tech                                            195
## 45 University Of British Columbia                          191
## 46 Carnagie Mellon University (CMU)                        190
## 47 University Of California, Irvine (UCI)                  182
## 48 Illinois At Urbana Champaign (UIUC)                     181
## 49 Dartmouth College                                       180
## 50 Boston University                                       175
## #  with 2,978 more rows
…
Standardizing our join key has ensured that we find matches for every one of our top 10 programs in institution_tbl. But alas, just among the schools with the most results, we noticed several inconsistencies  added abbreviations, some schools missing University in the name. Lets go further down the list:

admissions_results_adj %>%
  group_by(institution_key) %>%
  summarize(num_results = n()) %>%
  arrange(desc(num_results)) %>%
  print(n = 50)

## # A tibble: 2,346 x 2
##    institution_key                num_results
##    <chr>                                <int>
##  1 stanford                              1389
##  2 columbia                               929
##  3 carnegie mellon                        851
##  4 cornell                                811
##  5 carnegie mellon  cmu                   725
##  6 toronto                                697
##  7 southern california usc                616
##  8 princeton                              605
##  9 washington                             553
## 10 southern california                    533
## 11 massachusetts technology mit           492
## 12 brown                                  451
## 13 california san diego ucsd              440
## 14 california los angeles ucla            411
## 15 waterloo                               410
## 16 washington seattle                     395
## 17 california san diego                   393
## 18 mcgill                                 392
## 19 wisconsin madison                      392
## 20 california berkeley ucb                390
## 21 maryland college park                  382
## 22 uc berkeley                            370
## 23 purdue                                 369
## 24 texasaustin                            359
## 25 michigan ann arbor                     351
## 26 massachusetts amherst                  328
## 27 georgia technology                     319
## 28 chicago                                317
## 29 duke                                   298
## 30 california los angeles                 293
## 31 pennsylvania                           290
## 32 illinois urbana champaign uiuc         279
## 33 california irvine uci                  271
## 34 california berkeley                    262
## 35 oxford                                 261
## 36 massachusetts amherst umass            260
## 37 british columbia ubc                   259
## 38 ucsd california san diego              241
## 39 pennsylvania upenn                     235
## 40 texas austin ut austin                 234
## 41 yale                                   233
## 42 northwestern                           227
## 43 harvard                                224
## 44 gatech georgia technology              220
## 45 california santa barbara ucsb          219
## 46 utah                                   219
## 47 california irvine                      217
## 48 alberta                                212
## 49 illinois urbanachampaign               211
## 50 illinoisurbana champaign uiuc          205
## #  with 2,296 more rows
…
